﻿# Tiled2Unity generated file. Do not modify by hand.
# Wavefront file for 'ThirdMap_mesh_0060.obj'

# Vertices (Count = 24)
v -160 -176 0
v -176 -176 0
v -176 -160 0
v -160 -160 0
v -80 -176 0
v -96 -176 0
v -96 -160 0
v -80 -160 0
v -240 -208 0
v -256 -208 0
v -256 -192 0
v -240 -192 0
v -64 -240 0
v -80 -240 0
v -80 -224 0
v -64 -224 0
v -240 -256 0
v -256 -256 0
v -256 -240 0
v -240 -240 0
v -112 -256 0
v -128 -256 0
v -128 -240 0
v -112 -240 0

# Texture cooridinates (Count = 12)
vt 0.2458678 0.7110266
vt 0.2623967 0.7110266
vt 0.2623967 0.7414448
vt 0.2458678 0.7414448
vt 0.3863636 0.6463878
vt 0.4028926 0.6463878
vt 0.4028926 0.6768061
vt 0.3863636 0.6768061
vt 0.3863636 0.6140684
vt 0.4028926 0.6140684
vt 0.4028926 0.6444867
vt 0.3863636 0.6444867

# Normal
vn 0 0 -1

# Mesh description
g ThirdMap_mesh_0060

# Faces
f 1/1/1 2/2/1 3/3/1 4/4/1
f 5/5/1 6/6/1 7/7/1 8/8/1
f 9/9/1 10/10/1 11/11/1 12/12/1
f 13/5/1 14/6/1 15/7/1 16/8/1
f 17/9/1 18/10/1 19/11/1 20/12/1
f 21/5/1 22/6/1 23/7/1 24/8/1

