﻿# Tiled2Unity generated file. Do not modify by hand.
# Wavefront file for 'FirstMap_mesh_0045.obj'

# Vertices (Count = 8)
v -128 -80 0
v -144 -80 0
v -144 -64 0
v -128 -64 0
v 0 -128 0
v -16 -128 0
v -16 -112 0
v 0 -112 0

# Texture cooridinates (Count = 8)
vt 0.9307851 0.4201521
vt 0.947314 0.4201521
vt 0.947314 0.4505703
vt 0.9307851 0.4505703
vt 0.9483471 0.3555133
vt 0.9648761 0.3555133
vt 0.9648761 0.3859316
vt 0.9483471 0.3859316

# Normal
vn 0 0 -1

# Mesh description
g FirstMap_mesh_0045

# Faces
f 1/1/1 2/2/1 3/3/1 4/4/1
f 5/5/1 6/6/1 7/7/1 8/8/1

