﻿# Tiled2Unity generated file. Do not modify by hand.
# Wavefront file for 'FirstMap_mesh_0026.obj'

# Vertices (Count = 8)
v -208 -208 0
v -224 -208 0
v -224 -192 0
v -208 -192 0
v -192 -240 0
v -208 -240 0
v -208 -224 0
v -192 -224 0

# Texture cooridinates (Count = 8)
vt 0.8429752 0.8403042
vt 0.8595041 0.8403042
vt 0.8595041 0.8707224
vt 0.8429752 0.8707224
vt 0.5092975 0.6787072
vt 0.5258265 0.6787072
vt 0.5258265 0.7091255
vt 0.5092975 0.7091255

# Normal
vn 0 0 -1

# Mesh description
g FirstMap_mesh_0026

# Faces
f 1/1/1 2/2/1 3/3/1 4/4/1
f 5/5/1 6/6/1 7/7/1 8/8/1

