﻿# Tiled2Unity generated file. Do not modify by hand.
# Wavefront file for 'FirstMap_mesh_0034.obj'

# Vertices (Count = 4)
v -112 -16 0
v -128 -16 0
v -128 0 0
v -112 0 0

# Texture cooridinates (Count = 4)
vt 0.5092975 0.6787072
vt 0.5258265 0.6787072
vt 0.5258265 0.7091255
vt 0.5092975 0.7091255

# Normal
vn 0 0 -1

# Mesh description
g FirstMap_mesh_0034

# Faces
f 1/1/1 2/2/1 3/3/1 4/4/1

