%YAML 1.1
%TAG !u! tag:unity3d.com,2011:
--- !u!78 &1
TagManager:
  serializedVersion: 2
  tags:
  - OrcEnemy
  - Enemy
  - Weapon
  - DialogManager
  - Item
  - GameOver
  - Quest
  - NPC
  layers:
  - Default
  - TransparentFX
  - Ignore Raycast
  - 
  - Water
  - UI
  - 
  - 
  - Tress
  - Enemy
  - HealthBarEnemy
  - Items
  - 
  - 
  - 
  - 
  - 
  - 
  - 
  - 
  - 
  - 
  - 
  - 
  - 
  - 
  - 
  - 
  - 
  - 
  - 
  - 
  m_SortingLayers:
  - name: Default
    uniqueID: 0
    locked: 0
  - name: Enemy
    uniqueID: 3512769203
    locked: 0
  - name: Player
    uniqueID: 565182135
    locked: 0
  - name: WorldObjects
    uniqueID: 1428961583
    locked: 0
  - name: UI
    uniqueID: 1429729559
    locked: 0
