﻿# Tiled2Unity generated file. Do not modify by hand.
# Wavefront file for 'SecondMap_mesh_0060.obj'

# Vertices (Count = 104)
v -112 -16 0
v -128 -16 0
v -128 0 0
v -112 0 0
v -112 -32 0
v -128 -32 0
v -128 -16 0
v -112 -16 0
v -80 -32 0
v -96 -32 0
v -96 -16 0
v -80 -16 0
v -112 -48 0
v -128 -48 0
v -128 -32 0
v -112 -32 0
v -112 -64 0
v -128 -64 0
v -128 -48 0
v -112 -48 0
v -96 -64 0
v -112 -64 0
v -112 -48 0
v -96 -48 0
v -240 -80 0
v -256 -80 0
v -256 -64 0
v -240 -64 0
v -176 -80 0
v -192 -80 0
v -192 -64 0
v -176 -64 0
v -160 -80 0
v -176 -80 0
v -176 -64 0
v -160 -64 0
v -144 -80 0
v -160 -80 0
v -160 -64 0
v -144 -64 0
v -128 -80 0
v -144 -80 0
v -144 -64 0
v -128 -64 0
v -112 -80 0
v -128 -80 0
v -128 -64 0
v -112 -64 0
v -176 -96 0
v -192 -96 0
v -192 -80 0
v -176 -80 0
v -176 -112 0
v -192 -112 0
v -192 -96 0
v -176 -96 0
v -16 -112 0
v -32 -112 0
v -32 -96 0
v -16 -96 0
v -176 -128 0
v -192 -128 0
v -192 -112 0
v -176 -112 0
v -176 -144 0
v -192 -144 0
v -192 -128 0
v -176 -128 0
v -176 -160 0
v -192 -160 0
v -192 -144 0
v -176 -144 0
v -176 -176 0
v -192 -176 0
v -192 -160 0
v -176 -160 0
v -176 -192 0
v -192 -192 0
v -192 -176 0
v -176 -176 0
v -96 -192 0
v -112 -192 0
v -112 -176 0
v -96 -176 0
v -176 -208 0
v -192 -208 0
v -192 -192 0
v -176 -192 0
v -128 -208 0
v -144 -208 0
v -144 -192 0
v -128 -192 0
v -176 -224 0
v -192 -224 0
v -192 -208 0
v -176 -208 0
v -176 -240 0
v -192 -240 0
v -192 -224 0
v -176 -224 0
v -176 -256 0
v -192 -256 0
v -192 -240 0
v -176 -240 0

# Texture cooridinates (Count = 32)
vt 0.1580579 0.743346
vt 0.1745868 0.743346
vt 0.1745868 0.7737643
vt 0.1580579 0.7737643
vt 0.5444215 0.6787072
vt 0.5609504 0.6787072
vt 0.5609504 0.7091255
vt 0.5444215 0.7091255
vt 0.5268595 0.6787072
vt 0.5433884 0.6787072
vt 0.5433884 0.7091255
vt 0.5268595 0.7091255
vt 0.4917355 0.6787072
vt 0.5082645 0.6787072
vt 0.5082645 0.7091255
vt 0.4917355 0.7091255
vt 0.1580579 0.6787072
vt 0.1745868 0.6787072
vt 0.1745868 0.7091255
vt 0.1580579 0.7091255
vt 0.1580579 0.7110266
vt 0.1745868 0.7110266
vt 0.1745868 0.7414448
vt 0.1580579 0.7414448
vt 0.1229339 0.6140684
vt 0.1394628 0.6140684
vt 0.1394628 0.6444867
vt 0.1229339 0.6444867
vt 0.9659091 0.3231939
vt 0.982438 0.3231939
vt 0.982438 0.3536122
vt 0.9659091 0.3536122

# Normal
vn 0 0 -1

# Mesh description
g SecondMap_mesh_0060

# Faces
f 1/1/1 2/2/1 3/3/1 4/4/1
f 5/1/1 6/2/1 7/3/1 8/4/1
f 9/5/1 10/6/1 11/7/1 12/8/1
f 13/1/1 14/2/1 15/3/1 16/4/1
f 17/1/1 18/2/1 19/3/1 20/4/1
f 21/9/1 22/10/1 23/11/1 24/12/1
f 25/13/1 26/14/1 27/15/1 28/16/1
f 29/17/1 30/18/1 31/19/1 32/20/1
f 33/21/1 34/22/1 35/23/1 36/24/1
f 37/21/1 38/22/1 39/23/1 40/24/1
f 41/21/1 42/22/1 43/23/1 44/24/1
f 45/25/1 46/26/1 47/27/1 48/28/1
f 49/1/1 50/2/1 51/3/1 52/4/1
f 53/1/1 54/2/1 55/3/1 56/4/1
f 57/29/1 58/30/1 59/31/1 60/32/1
f 61/1/1 62/2/1 63/3/1 64/4/1
f 65/1/1 66/2/1 67/3/1 68/4/1
f 69/1/1 70/2/1 71/3/1 72/4/1
f 73/1/1 74/2/1 75/3/1 76/4/1
f 77/1/1 78/2/1 79/3/1 80/4/1
f 81/5/1 82/6/1 83/7/1 84/8/1
f 85/1/1 86/2/1 87/3/1 88/4/1
f 89/9/1 90/10/1 91/11/1 92/12/1
f 93/1/1 94/2/1 95/3/1 96/4/1
f 97/1/1 98/2/1 99/3/1 100/4/1
f 101/1/1 102/2/1 103/3/1 104/4/1

