﻿# Tiled2Unity generated file. Do not modify by hand.
# Wavefront file for 'SecondMap_mesh_0096.obj'

# Vertices (Count = 128)
v -160 -16 0
v -176 -16 0
v -176 0 0
v -160 0 0
v -64 -16 0
v -80 -16 0
v -80 0 0
v -64 0 0
v -160 -32 0
v -176 -32 0
v -176 -16 0
v -160 -16 0
v -64 -32 0
v -80 -32 0
v -80 -16 0
v -64 -16 0
v -160 -48 0
v -176 -48 0
v -176 -32 0
v -160 -32 0
v -64 -48 0
v -80 -48 0
v -80 -32 0
v -64 -32 0
v -160 -64 0
v -176 -64 0
v -176 -48 0
v -160 -48 0
v -64 -64 0
v -80 -64 0
v -80 -48 0
v -64 -48 0
v -160 -80 0
v -176 -80 0
v -176 -64 0
v -160 -64 0
v -64 -80 0
v -80 -80 0
v -80 -64 0
v -64 -64 0
v -160 -96 0
v -176 -96 0
v -176 -80 0
v -160 -80 0
v -64 -96 0
v -80 -96 0
v -80 -80 0
v -64 -80 0
v -160 -112 0
v -176 -112 0
v -176 -96 0
v -160 -96 0
v -64 -112 0
v -80 -112 0
v -80 -96 0
v -64 -96 0
v -160 -128 0
v -176 -128 0
v -176 -112 0
v -160 -112 0
v -64 -128 0
v -80 -128 0
v -80 -112 0
v -64 -112 0
v -160 -144 0
v -176 -144 0
v -176 -128 0
v -160 -128 0
v -64 -144 0
v -80 -144 0
v -80 -128 0
v -64 -128 0
v -160 -160 0
v -176 -160 0
v -176 -144 0
v -160 -144 0
v -64 -160 0
v -80 -160 0
v -80 -144 0
v -64 -144 0
v -160 -176 0
v -176 -176 0
v -176 -160 0
v -160 -160 0
v -64 -176 0
v -80 -176 0
v -80 -160 0
v -64 -160 0
v -160 -192 0
v -176 -192 0
v -176 -176 0
v -160 -176 0
v -64 -192 0
v -80 -192 0
v -80 -176 0
v -64 -176 0
v -160 -208 0
v -176 -208 0
v -176 -192 0
v -160 -192 0
v -64 -208 0
v -80 -208 0
v -80 -192 0
v -64 -192 0
v -160 -224 0
v -176 -224 0
v -176 -208 0
v -160 -208 0
v -64 -224 0
v -80 -224 0
v -80 -208 0
v -64 -208 0
v -160 -240 0
v -176 -240 0
v -176 -224 0
v -160 -224 0
v -64 -240 0
v -80 -240 0
v -80 -224 0
v -64 -224 0
v -160 -256 0
v -176 -256 0
v -176 -240 0
v -160 -240 0
v -64 -256 0
v -80 -256 0
v -80 -240 0
v -64 -240 0

# Texture cooridinates (Count = 8)
vt 0.07024793 0.9372624
vt 0.08677686 0.9372624
vt 0.08677686 0.9676806
vt 0.07024793 0.9676806
vt 0.03512397 0.9372624
vt 0.05165289 0.9372624
vt 0.05165289 0.9676806
vt 0.03512397 0.9676806

# Normal
vn 0 0 -1

# Mesh description
g SecondMap_mesh_0096

# Faces
f 1/1/1 2/2/1 3/3/1 4/4/1
f 5/5/1 6/6/1 7/7/1 8/8/1
f 9/1/1 10/2/1 11/3/1 12/4/1
f 13/5/1 14/6/1 15/7/1 16/8/1
f 17/1/1 18/2/1 19/3/1 20/4/1
f 21/5/1 22/6/1 23/7/1 24/8/1
f 25/1/1 26/2/1 27/3/1 28/4/1
f 29/5/1 30/6/1 31/7/1 32/8/1
f 33/1/1 34/2/1 35/3/1 36/4/1
f 37/5/1 38/6/1 39/7/1 40/8/1
f 41/1/1 42/2/1 43/3/1 44/4/1
f 45/5/1 46/6/1 47/7/1 48/8/1
f 49/1/1 50/2/1 51/3/1 52/4/1
f 53/5/1 54/6/1 55/7/1 56/8/1
f 57/1/1 58/2/1 59/3/1 60/4/1
f 61/5/1 62/6/1 63/7/1 64/8/1
f 65/1/1 66/2/1 67/3/1 68/4/1
f 69/5/1 70/6/1 71/7/1 72/8/1
f 73/1/1 74/2/1 75/3/1 76/4/1
f 77/5/1 78/6/1 79/7/1 80/8/1
f 81/1/1 82/2/1 83/3/1 84/4/1
f 85/5/1 86/6/1 87/7/1 88/8/1
f 89/1/1 90/2/1 91/3/1 92/4/1
f 93/5/1 94/6/1 95/7/1 96/8/1
f 97/1/1 98/2/1 99/3/1 100/4/1
f 101/5/1 102/6/1 103/7/1 104/8/1
f 105/1/1 106/2/1 107/3/1 108/4/1
f 109/5/1 110/6/1 111/7/1 112/8/1
f 113/1/1 114/2/1 115/3/1 116/4/1
f 117/5/1 118/6/1 119/7/1 120/8/1
f 121/1/1 122/2/1 123/3/1 124/4/1
f 125/5/1 126/6/1 127/7/1 128/8/1

