﻿# Tiled2Unity generated file. Do not modify by hand.
# Wavefront file for 'SecondMap_mesh_0046.obj'

# Vertices (Count = 12)
v -32 -176 0
v -48 -176 0
v -48 -160 0
v -32 -160 0
v -176 -208 0
v -192 -208 0
v -192 -192 0
v -176 -192 0
v -144 -240 0
v -160 -240 0
v -160 -224 0
v -144 -224 0

# Texture cooridinates (Count = 8)
vt 0.5092975 0.6787072
vt 0.5258265 0.6787072
vt 0.5258265 0.7091255
vt 0.5092975 0.7091255
vt 0.4917355 0.6787072
vt 0.5082645 0.6787072
vt 0.5082645 0.7091255
vt 0.4917355 0.7091255

# Normal
vn 0 0 -1

# Mesh description
g SecondMap_mesh_0046

# Faces
f 1/1/1 2/2/1 3/3/1 4/4/1
f 5/1/1 6/2/1 7/3/1 8/4/1
f 9/5/1 10/6/1 11/7/1 12/8/1

