﻿# Tiled2Unity generated file. Do not modify by hand.
# Wavefront file for 'SecondMap_mesh_0052.obj'

# Vertices (Count = 44)
v -32 -16 0
v -48 -16 0
v -48 0 0
v -32 0 0
v -128 -80 0
v -144 -80 0
v -144 -64 0
v -128 -64 0
v -128 -128 0
v -144 -128 0
v -144 -112 0
v -128 -112 0
v -144 -208 0
v -160 -208 0
v -160 -192 0
v -144 -192 0
v -144 -224 0
v -160 -224 0
v -160 -208 0
v -144 -208 0
v -128 -224 0
v -144 -224 0
v -144 -208 0
v -128 -208 0
v -96 -224 0
v -112 -224 0
v -112 -208 0
v -96 -208 0
v -80 -224 0
v -96 -224 0
v -96 -208 0
v -80 -208 0
v -176 -240 0
v -192 -240 0
v -192 -224 0
v -176 -224 0
v -144 -240 0
v -160 -240 0
v -160 -224 0
v -144 -224 0
v -224 -256 0
v -240 -256 0
v -240 -240 0
v -224 -240 0

# Texture cooridinates (Count = 24)
vt 0.5092975 0.6787072
vt 0.5258265 0.6787072
vt 0.5258265 0.7091255
vt 0.5092975 0.7091255
vt 0.4917355 0.6787072
vt 0.5082645 0.6787072
vt 0.5082645 0.7091255
vt 0.4917355 0.7091255
vt 0.9659091 0.3555133
vt 0.982438 0.3555133
vt 0.982438 0.3859316
vt 0.9659091 0.3859316
vt 0.9659091 0.2908745
vt 0.982438 0.2908745
vt 0.982438 0.3212928
vt 0.9659091 0.3212928
vt 0.9483471 0.2908745
vt 0.9648761 0.2908745
vt 0.9648761 0.3212928
vt 0.9483471 0.3212928
vt 0.5268595 0.6787072
vt 0.5433884 0.6787072
vt 0.5433884 0.7091255
vt 0.5268595 0.7091255

# Normal
vn 0 0 -1

# Mesh description
g SecondMap_mesh_0052

# Faces
f 1/1/1 2/2/1 3/3/1 4/4/1
f 5/1/1 6/2/1 7/3/1 8/4/1
f 9/5/1 10/6/1 11/7/1 12/8/1
f 13/5/1 14/6/1 15/7/1 16/8/1
f 17/9/1 18/10/1 19/11/1 20/12/1
f 21/13/1 22/14/1 23/15/1 24/16/1
f 25/17/1 26/18/1 27/19/1 28/20/1
f 29/17/1 30/18/1 31/19/1 32/20/1
f 33/5/1 34/6/1 35/7/1 36/8/1
f 37/5/1 38/6/1 39/7/1 40/8/1
f 41/21/1 42/22/1 43/23/1 44/24/1

