﻿# Tiled2Unity generated file. Do not modify by hand.
# Wavefront file for 'SecondMap_mesh_0053.obj'

# Vertices (Count = 8)
v -240 -256 0
v -256 -256 0
v -256 -240 0
v -240 -240 0
v -192 -256 0
v -208 -256 0
v -208 -240 0
v -192 -240 0

# Texture cooridinates (Count = 8)
vt 0.1229339 0.743346
vt 0.1394628 0.743346
vt 0.1394628 0.7737643
vt 0.1229339 0.7737643
vt 0.9483471 0.3231939
vt 0.9648761 0.3231939
vt 0.9648761 0.3536122
vt 0.9483471 0.3536122

# Normal
vn 0 0 -1

# Mesh description
g SecondMap_mesh_0053

# Faces
f 1/1/1 2/2/1 3/3/1 4/4/1
f 5/5/1 6/6/1 7/7/1 8/8/1

